…
Larger numbers of replicates tend to have less impact on the standard error. However, if the baseline value of $\sigma$ is impractically large, the diminishing returns on replication may still be worth the extra computational costs. 

To create repeats, invoke `vfold_cv()` with an additional argument `repeats`: 


```r
vfold_cv(ames_train, v = 10, repeats = 5)
```

```
## #  10-fold cross-validation repeated 5 times 
## # A tibble: 50 × 3
##    splits             id      id2   
##    <list>             <chr>   <chr> 
##  1 <split [2107/235]> Repeat1 Fold01
##  2 <split [2107/235]> Repeat1 Fold02
##  3 <split [2108/234]> Repeat1 Fold03
##  4 <split [2108/234]> Repeat1 Fold04
##  5 <split [2108/234]> Repeat1 Fold05
##  6 <split [2108/234]> Repeat1 Fold06
##  7 <split [2108/234]> Repeat1 Fold07
##  8 <split [2108/234]> Repeat1 Fold08
##  9 <split [2108/234]> Repeat1 Fold09
## 10 <split [2108/234]> Repeat1 Fold10
## # ℹ 40 more rows
```
…
These are the resampling estimates averaged over the individual replicates. To get the metrics for each resample, use the option `summarize = FALSE`. 

Notice how much more realistic the performance estimates are than the resubstitution estimates from Section \@ref(resampling-resubstition)!

To obtain the assessment set predictions: 


```r
assess_res <- collect_predictions(rf_res)
assess_res
```

```
## # A tibble: 2,342 × 5
##    id     .pred  .row Sale_Price .config             
##    <chr>  <dbl> <int>      <dbl> <chr>               
##  1 Fold01  5.10    10       5.09 Preprocessor1_Model1
##  2 Fold01  4.92    27       4.90 Preprocessor1_Model1
##  3 Fold01  5.21    47       5.08 Preprocessor1_Model1
##  4 Fold01  5.13    52       5.10 Preprocessor1_Model1
##  5 Fold01  5.13    59       5.10 Preprocessor1_Model1
##  6 Fold01  5.13    63       5.11 Preprocessor1_Model1
##  7 Fold01  4.87    65       4.91 Preprocessor1_Model1
##  8 Fold01  4.98    66       5.04 Preprocessor1_Model1
##  9 Fold01  4.91    67       4.84 Preprocessor1_Model1
## 10 Fold01  4.91    68       5.01 Preprocessor1_Model1
## # ℹ 2,332 more rows
```


```r
collect_predictions(rf_res, summarize = TRUE)
```

```
## # A tibble: 2,342 × 4
##     .row Sale_Price .config              .pred
##    <int>      <dbl> <chr>                <dbl>
##  1     1       5.10 Preprocessor1_Model1  5.00
##  2     2       5.06 Preprocessor1_Model1  5.07
##  3     3       5.02 Preprocessor1_Model1  4.98
##  4     4       4.94 Preprocessor1_Model1  5.02
##  5     5       5.11 Preprocessor1_Model1  5.15
##  6     6       5.08 Preprocessor1_Model1  5.11
##  7     7       5.00 Preprocessor1_Model1  5.14
##  8     8       4.83 Preprocessor1_Model1  5.00
##  9     9       5.05 Preprocessor1_Model1  5.15
## 10    10       5.09 Preprocessor1_Model1  5.10
## # ℹ 2,332 more rows
```
…
```
## # A tibble: 1 × 2
##   .extracts         .config             
##   <list>            <chr>               
## 1 <tibble [73 × 5]> Preprocessor1_Model1
```

```r
# To get the results
lm_res$.extracts[[1]][[1]]
```

```
## [[1]]
## # A tibble: 73 × 5
##    term                             estimate  std.error statistic   p.value
##    <chr>                               <dbl>      <dbl>     <dbl>     <dbl>
##  1 (Intercept)                      1.48     0.320         4.62   4.11e-  6
##  2 Gr_Liv_Area                      0.000158 0.00000476   33.2    9.72e-194
##  3 Year_Built                       0.00180  0.000149     12.1    1.57e- 32
##  4 Neighborhood_College_Creek      -0.00163  0.0373       -0.0438 9.65e-  1
##  5 Neighborhood_Old_Town           -0.0757   0.0138       -5.47   4.92e-  8
##  6 Neighborhood_Edwards            -0.109    0.0310       -3.53   4.21e-  4
##  7 Neighborhood_Somerset            0.0832   0.0217        3.83   1.33e-  4
##  8 Neighborhood_Northridge_Heights  0.163    0.0401        4.06   5.19e-  5
##  9 Neighborhood_Gilbert             0.0304   0.0367        0.827  4.08e-  1
## 10 Neighborhood_Sawyer             -0.113    0.0291       -3.88   1.07e-  4
## # ℹ 63 more rows
```
…
