…
### model1


```r
predict1_l <- predict1 |> 
  pivot_longer(cols=c(weight, .pred))
predict1_l
```

```
## # A tibble: 224 × 4
##     Time Diet  name   value
##    <dbl> <fct> <chr>  <dbl>
##  1     0 1     weight  42  
##  2     0 1     .pred   10.6
##  3     2 1     weight  51  
##  4     2 1     .pred   28.8
##  5     4 1     weight  59  
##  6     4 1     .pred   46.9
##  7     6 1     weight  64  
##  8     6 1     .pred   65.1
##  9     8 1     weight  76  
## 10     8 1     .pred   83.2
## # ℹ 214 more rows
```
…
### model2


```r
predict2_l <- predict2 |> 
  pivot_longer(cols=c(weight, .pred))
predict2_l
```

```
## # A tibble: 224 × 4
##     Time Diet  name   value
##    <dbl> <fct> <chr>  <dbl>
##  1     0 1     weight  42  
##  2     0 1     .pred   30.8
##  3     2 1     weight  51  
##  4     2 1     .pred   45.2
##  5     4 1     weight  59  
##  6     4 1     .pred   59.5
##  7     6 1     weight  64  
##  8     6 1     .pred   73.9
##  9     8 1     weight  76  
## 10     8 1     .pred   88.2
## # ℹ 214 more rows
```
…
### model3


```r
predict3_l <- predict3 |> 
  pivot_longer(cols=c(weight, .pred))
predict3_l
```

```
## # A tibble: 224 × 4
##     Time Diet  name   value
##    <dbl> <fct> <chr>  <dbl>
##  1     0 1     weight  42  
##  2     0 1     .pred   10.9
##  3     2 1     weight  51  
##  4     2 1     .pred   29.1
##  5     4 1     weight  59  
##  6     4 1     .pred   47.2
##  7     6 1     weight  64  
##  8     6 1     .pred   65.4
##  9     8 1     weight  76  
## 10     8 1     .pred   83.5
## # ℹ 214 more rows
```
…
### model4


```r
predict4_l <- predict4 |> 
  pivot_longer(cols=c(weight, .pred))
predict4_l
```

```
## # A tibble: 224 × 4
##     Time Diet  name   value
##    <dbl> <fct> <chr>  <dbl>
##  1     0 1     weight  42  
##  2     0 1     .pred   31.1
##  3     2 1     weight  51  
##  4     2 1     .pred   45.3
##  5     4 1     weight  59  
##  6     4 1     .pred   59.6
##  7     6 1     weight  64  
##  8     6 1     .pred   73.8
##  9     8 1     weight  76  
## 10     8 1     .pred   88.0
## # ℹ 214 more rows
```
…
