…
I am not suggesting that you do regressions or plots on all variables at this time, rather that you think about what might have this kind of impact.

If you need to make a new predictor variable, go ahead.


```r
Chicago_week <- Chicago %>%
  mutate(dow = as.character(wday(ymd(date), label = T))) %>% 
  mutate(weekday = as.factor(ifelse(dow %in% c("Sat","Sun"), "Weekend", "Weekday")))
Chicago_week
```

```
## # A tibble: 5,698 × 52
##    ridership Austin Quincy_Wells Belmont Archer_35th Oak_Park Western Clark_Lake
##        <dbl>  <dbl>        <dbl>   <dbl>       <dbl>    <dbl>   <dbl>      <dbl>
##  1     15.7   1.46         8.37     4.60       2.01     1.42    3.32       15.6 
##  2     15.8   1.50         8.35     4.72       2.09     1.43    3.34       15.7 
##  3     15.9   1.52         8.36     4.68       2.11     1.49    3.36       15.6 
##  4     15.9   1.49         7.85     4.77       2.17     1.44    3.36       15.7 
##  5     15.4   1.50         7.62     4.72       2.06     1.42    3.27       15.6 
##  6      2.42  0.693        0.911    2.27       0.624    0.426   1.11        2.41
##  7      1.47  0.408        0.414    1.63       0.378    0.225   0.567       1.37
##  8     15.5   0.987        4.81     3.52       1.34     0.879   1.94        9.02
##  9     15.9   1.55         8.23     4.71       2.22     1.46    3.46       16.0 
## 10     15.9   1.59         8.25     4.77       2.23     1.48    3.51       15.8 
## # ℹ 5,688 more rows
## # ℹ 44 more variables: Clinton <dbl>, Merchandise_Mart <dbl>,
## #   Irving_Park <dbl>, Washington_Wells <dbl>, Harlem <dbl>, Monroe <dbl>,
## #   Polk <dbl>, Ashland <dbl>, Kedzie <dbl>, Addison <dbl>,
## #   Jefferson_Park <dbl>, Montrose <dbl>, California <dbl>, temp_min <dbl>,
## #   temp <dbl>, temp_max <dbl>, temp_change <dbl>, dew <dbl>, humidity <dbl>,
## #   pressure <dbl>, pressure_change <dbl>, wind <dbl>, wind_max <dbl>, …
```
…
```r
lm_wflow <- 
  workflow() %>% 
  add_model(lm_model) %>% 
  add_recipe(Chicago_rec)

lm_fit <- fit(lm_wflow, Chicago_train)

tidy(lm_fit)
```

```
## # A tibble: 26 × 5
##    term            estimate std.error statistic   p.value
##    <chr>              <dbl>     <dbl>     <dbl>     <dbl>
##  1 (Intercept)       2.83      0.338      8.36   8.20e-17
##  2 Blackhawks_Away  -0.0493    0.114     -0.432  6.66e- 1
##  3 Blackhawks_Home   0.0191    0.118      0.162  8.71e- 1
##  4 Bulls_Away       -0.0524    0.114     -0.458  6.47e- 1
##  5 Bulls_Home        0.204     0.115      1.78   7.54e- 2
##  6 Bears_Away        0.0424    0.227      0.187  8.52e- 1
##  7 Bears_Home        0.207     0.212      0.975  3.29e- 1
##  8 WhiteSox_Away    -0.308     0.0980    -3.14   1.69e- 3
##  9 WhiteSox_Home    NA        NA         NA     NA       
## 10 Cubs_Away        NA        NA         NA     NA       
## # ℹ 16 more rows
```

```r
tidy(lm_fit) %>% select(term, p.value)
```

```
## # A tibble: 26 × 2
##    term              p.value
##    <chr>               <dbl>
##  1 (Intercept)      8.20e-17
##  2 Blackhawks_Away  6.66e- 1
##  3 Blackhawks_Home  8.71e- 1
##  4 Bulls_Away       6.47e- 1
##  5 Bulls_Home       7.54e- 2
##  6 Bears_Away       8.52e- 1
##  7 Bears_Home       3.29e- 1
##  8 WhiteSox_Away    1.69e- 3
##  9 WhiteSox_Home   NA       
## 10 Cubs_Away       NA       
## # ℹ 16 more rows
```
…
```
## Warning in predict.lm(object = object$fit, newdata = new_data, type =
## "response", : prediction from rank-deficient fit; consider predict(.,
## rankdeficient="NA")
```

```r
predicted_r
```

```
## # A tibble: 1,141 × 1
##     .pred
##     <dbl>
##  1  0.820
##  2  0.242
##  3 14.3  
##  4 13.9  
##  5 14.1  
##  6  2.05 
##  7 14.2  
##  8  1.67 
##  9  1.37 
## 10 -0.416
## # ℹ 1,131 more rows
```


```r
chicago_test_predictions <- bind_cols(predicted_r, Chicago_test_onlyr)
chicago_test_predictions
```

```
## # A tibble: 1,141 × 3
##     .pred ridership weekday
##     <dbl>     <dbl> <fct>  
##  1  0.820      2.48 Weekend
##  2  0.242      1.56 Weekend
##  3 14.3       15.6  Weekday
##  4 13.9       15.8  Weekday
##  5 14.1       16.2  Weekday
##  6  2.05       2.76 Weekend
##  7 14.2       16.2  Weekday
##  8  1.67       3    Weekend
##  9  1.37       2.70 Weekend
## 10 -0.416      1.71 Weekend
## # ℹ 1,131 more rows
```
…
